{
  "fabric": {
    "fileName": "baritone-%mc%",
    "versions": {
      "1.15.2": {
        "url": "https://gitlab.com/CDAGaming/fabritone/builds/artifacts/1.15.2/raw/build/libs/fabritone-1.5.2.jar?job=build",
        "version": "1.5.2",
        "scheme": "-v2"
      },
      "1.15.1": {
        "url": "https://gitlab.com/CDAGaming/fabritone/builds/artifacts/1.15.1/raw/build/libs/fabritone-1.5.2.jar?job=build",
        "version": "1.5.2",
        "scheme": "-v2"
      },
      "1.15": {
        "url": "https://gitlab.com/CDAGaming/fabritone/builds/artifacts/1.15/raw/build/libs/fabritone-1.5.2.jar?job=build",
        "version": "1.5.2",
        "scheme": "-v2"
      },
      "1.14.4": {
        "url": "https://gitlab.com/CDAGaming/fabritone/builds/artifacts/master/raw/build/libs/fabritone-1.5.2.jar?job=build",
        "version": "1.5.2",
        "scheme": "-v2"
      }
    }
  },
  "id": "Fabritone",
  "name": "Fabritone",
  "author": "Deft, Indrit, CDAGaming",
  "summary": "Automine bot for Aristois, fork of Baritone. Supports 1.14.4 through 1.15.2",
  "description": [
    "Fabritone is a fork of Baritone made for Aristois. The addon lets",
    "you \"automine\", automatically get from A to B, and much more!",
    "Currently supported versions are: 1.14.4 through 1.15.2",
    "Source at https://gitlab.com/CDAGaming/fabritone"
  ],
  "version": "4"
}